^F:\WORLD OF PKZ 5.4.8\SRC\TOOLS\MMAPS_GENERATOR\INTERMEDIATEVALUES.CPP
/c /I"F:\World of PKZ 5.4.8\build" /I"F:\World of PKZ 5.4.8\dep\acelite" /I"F:\World of PKZ 5.4.8\dep\libmpq" /I"F:\World of PKZ 5.4.8\dep\zlib" /I"F:\World of PKZ 5.4.8\dep\bzip2" /I"F:\World of PKZ 5.4.8\dep\g3dlite\include" /I"F:\World of PKZ 5.4.8\dep\recastnavigation\Recast" /I"F:\World of PKZ 5.4.8\dep\recastnavigation\Detour" /I"F:\World of PKZ 5.4.8\src\server\shared" /I"F:\World of PKZ 5.4.8\src\server\game\Conditions" /I"F:\World of PKZ 5.4.8\src\server\collision" /I"F:\World of PKZ 5.4.8\src\server\collision\Management" /I"F:\World of PKZ 5.4.8\src\server\collision\Maps" /I"F:\World of PKZ 5.4.8\src\server\collision\Models" /I"F:\World of PKZ 5.4.8\dep\libmpq\win" /nologo /W3 /WX- /O2 /Ob2 /D WIN32 /D _WINDOWS /D NDEBUG /D "_BUILD_DIRECTIVE=\"Release\"" /D _WIN64 /D _CRT_SECURE_CPP_OVERLOAD_STANDARD_NAMES /D _CRT_SECURE_NO_WARNINGS /D _CRT_NONSTDC_NO_WARNINGS /D SCRIPTS /D NO_CORE_FUNCS /D "CMAKE_INTDIR=\"Release\"" /D _MBCS /Gm- /EHsc /MD /GS /fp:precise /Zc:wchar_t /Zc:forScope /GR /Fo"MMAPS_GENERATOR.DIR\RELEASE\\" /Fd"MMAPS_GENERATOR.DIR\RELEASE\VC120.PDB" /Gd /TP /wd4996 /wd4355 /wd4244 /wd4985 /wd4267 /wd4619 /wd4512 /wd4996 /wd4355 /wd4244 /wd4985 /wd4267 /wd4619 /wd4512 /wd4996 /wd4355 /wd4244 /wd4985 /wd4267 /wd4619 /wd4512 /wd4996 /wd4355 /wd4244 /wd4985 /wd4267 /wd4619 /wd4512 /wd4996 /wd4355 /wd4244 /wd4985 /wd4267 /wd4619 /wd4512 /wd4996 /wd4355 /wd4244 /wd4985 /wd4267 /wd4619 /wd4512 /we4263 /we4264  /Zm500 -std=c++11  F:\WORLD OF PKZ 5.4.8\SRC\TOOLS\MMAPS_GENERATOR\INTERMEDIATEVALUES.CPP
^F:\WORLD OF PKZ 5.4.8\SRC\TOOLS\MMAPS_GENERATOR\MAPBUILDER.CPP
/c /I"F:\World of PKZ 5.4.8\build" /I"F:\World of PKZ 5.4.8\dep\acelite" /I"F:\World of PKZ 5.4.8\dep\libmpq" /I"F:\World of PKZ 5.4.8\dep\zlib" /I"F:\World of PKZ 5.4.8\dep\bzip2" /I"F:\World of PKZ 5.4.8\dep\g3dlite\include" /I"F:\World of PKZ 5.4.8\dep\recastnavigation\Recast" /I"F:\World of PKZ 5.4.8\dep\recastnavigation\Detour" /I"F:\World of PKZ 5.4.8\src\server\shared" /I"F:\World of PKZ 5.4.8\src\server\game\Conditions" /I"F:\World of PKZ 5.4.8\src\server\collision" /I"F:\World of PKZ 5.4.8\src\server\collision\Management" /I"F:\World of PKZ 5.4.8\src\server\collision\Maps" /I"F:\World of PKZ 5.4.8\src\server\collision\Models" /I"F:\World of PKZ 5.4.8\dep\libmpq\win" /nologo /W3 /WX- /O2 /Ob2 /D WIN32 /D _WINDOWS /D NDEBUG /D "_BUILD_DIRECTIVE=\"Release\"" /D _WIN64 /D _CRT_SECURE_CPP_OVERLOAD_STANDARD_NAMES /D _CRT_SECURE_NO_WARNINGS /D _CRT_NONSTDC_NO_WARNINGS /D SCRIPTS /D NO_CORE_FUNCS /D "CMAKE_INTDIR=\"Release\"" /D _MBCS /Gm- /EHsc /MD /GS /fp:precise /Zc:wchar_t /Zc:forScope /GR /Fo"MMAPS_GENERATOR.DIR\RELEASE\\" /Fd"MMAPS_GENERATOR.DIR\RELEASE\VC120.PDB" /Gd /TP /wd4996 /wd4355 /wd4244 /wd4985 /wd4267 /wd4619 /wd4512 /wd4996 /wd4355 /wd4244 /wd4985 /wd4267 /wd4619 /wd4512 /wd4996 /wd4355 /wd4244 /wd4985 /wd4267 /wd4619 /wd4512 /wd4996 /wd4355 /wd4244 /wd4985 /wd4267 /wd4619 /wd4512 /wd4996 /wd4355 /wd4244 /wd4985 /wd4267 /wd4619 /wd4512 /wd4996 /wd4355 /wd4244 /wd4985 /wd4267 /wd4619 /wd4512 /we4263 /we4264  /Zm500 -std=c++11  F:\WORLD OF PKZ 5.4.8\SRC\TOOLS\MMAPS_GENERATOR\MAPBUILDER.CPP
^F:\WORLD OF PKZ 5.4.8\SRC\TOOLS\MMAPS_GENERATOR\PATHGENERATOR.CPP
/c /I"F:\World of PKZ 5.4.8\build" /I"F:\World of PKZ 5.4.8\dep\acelite" /I"F:\World of PKZ 5.4.8\dep\libmpq" /I"F:\World of PKZ 5.4.8\dep\zlib" /I"F:\World of PKZ 5.4.8\dep\bzip2" /I"F:\World of PKZ 5.4.8\dep\g3dlite\include" /I"F:\World of PKZ 5.4.8\dep\recastnavigation\Recast" /I"F:\World of PKZ 5.4.8\dep\recastnavigation\Detour" /I"F:\World of PKZ 5.4.8\src\server\shared" /I"F:\World of PKZ 5.4.8\src\server\game\Conditions" /I"F:\World of PKZ 5.4.8\src\server\collision" /I"F:\World of PKZ 5.4.8\src\server\collision\Management" /I"F:\World of PKZ 5.4.8\src\server\collision\Maps" /I"F:\World of PKZ 5.4.8\src\server\collision\Models" /I"F:\World of PKZ 5.4.8\dep\libmpq\win" /nologo /W3 /WX- /O2 /Ob2 /D WIN32 /D _WINDOWS /D NDEBUG /D "_BUILD_DIRECTIVE=\"Release\"" /D _WIN64 /D _CRT_SECURE_CPP_OVERLOAD_STANDARD_NAMES /D _CRT_SECURE_NO_WARNINGS /D _CRT_NONSTDC_NO_WARNINGS /D SCRIPTS /D NO_CORE_FUNCS /D "CMAKE_INTDIR=\"Release\"" /D _MBCS /Gm- /EHsc /MD /GS /fp:precise /Zc:wchar_t /Zc:forScope /GR /Fo"MMAPS_GENERATOR.DIR\RELEASE\\" /Fd"MMAPS_GENERATOR.DIR\RELEASE\VC120.PDB" /Gd /TP /wd4996 /wd4355 /wd4244 /wd4985 /wd4267 /wd4619 /wd4512 /wd4996 /wd4355 /wd4244 /wd4985 /wd4267 /wd4619 /wd4512 /wd4996 /wd4355 /wd4244 /wd4985 /wd4267 /wd4619 /wd4512 /wd4996 /wd4355 /wd4244 /wd4985 /wd4267 /wd4619 /wd4512 /wd4996 /wd4355 /wd4244 /wd4985 /wd4267 /wd4619 /wd4512 /wd4996 /wd4355 /wd4244 /wd4985 /wd4267 /wd4619 /wd4512 /we4263 /we4264  /Zm500 -std=c++11  F:\WORLD OF PKZ 5.4.8\SRC\TOOLS\MMAPS_GENERATOR\PATHGENERATOR.CPP
^F:\WORLD OF PKZ 5.4.8\SRC\TOOLS\MMAPS_GENERATOR\TERRAINBUILDER.CPP
/c /I"F:\World of PKZ 5.4.8\build" /I"F:\World of PKZ 5.4.8\dep\acelite" /I"F:\World of PKZ 5.4.8\dep\libmpq" /I"F:\World of PKZ 5.4.8\dep\zlib" /I"F:\World of PKZ 5.4.8\dep\bzip2" /I"F:\World of PKZ 5.4.8\dep\g3dlite\include" /I"F:\World of PKZ 5.4.8\dep\recastnavigation\Recast" /I"F:\World of PKZ 5.4.8\dep\recastnavigation\Detour" /I"F:\World of PKZ 5.4.8\src\server\shared" /I"F:\World of PKZ 5.4.8\src\server\game\Conditions" /I"F:\World of PKZ 5.4.8\src\server\collision" /I"F:\World of PKZ 5.4.8\src\server\collision\Management" /I"F:\World of PKZ 5.4.8\src\server\collision\Maps" /I"F:\World of PKZ 5.4.8\src\server\collision\Models" /I"F:\World of PKZ 5.4.8\dep\libmpq\win" /nologo /W3 /WX- /O2 /Ob2 /D WIN32 /D _WINDOWS /D NDEBUG /D "_BUILD_DIRECTIVE=\"Release\"" /D _WIN64 /D _CRT_SECURE_CPP_OVERLOAD_STANDARD_NAMES /D _CRT_SECURE_NO_WARNINGS /D _CRT_NONSTDC_NO_WARNINGS /D SCRIPTS /D NO_CORE_FUNCS /D "CMAKE_INTDIR=\"Release\"" /D _MBCS /Gm- /EHsc /MD /GS /fp:precise /Zc:wchar_t /Zc:forScope /GR /Fo"MMAPS_GENERATOR.DIR\RELEASE\\" /Fd"MMAPS_GENERATOR.DIR\RELEASE\VC120.PDB" /Gd /TP /wd4996 /wd4355 /wd4244 /wd4985 /wd4267 /wd4619 /wd4512 /wd4996 /wd4355 /wd4244 /wd4985 /wd4267 /wd4619 /wd4512 /wd4996 /wd4355 /wd4244 /wd4985 /wd4267 /wd4619 /wd4512 /wd4996 /wd4355 /wd4244 /wd4985 /wd4267 /wd4619 /wd4512 /wd4996 /wd4355 /wd4244 /wd4985 /wd4267 /wd4619 /wd4512 /wd4996 /wd4355 /wd4244 /wd4985 /wd4267 /wd4619 /wd4512 /we4263 /we4264  /Zm500 -std=c++11  F:\WORLD OF PKZ 5.4.8\SRC\TOOLS\MMAPS_GENERATOR\TERRAINBUILDER.CPP
^F:\WORLD OF PKZ 5.4.8\SRC\TOOLS\MMAPS_GENERATOR\VMAPEXTENSIONS.CPP
/c /I"F:\World of PKZ 5.4.8\build" /I"F:\World of PKZ 5.4.8\dep\acelite" /I"F:\World of PKZ 5.4.8\dep\libmpq" /I"F:\World of PKZ 5.4.8\dep\zlib" /I"F:\World of PKZ 5.4.8\dep\bzip2" /I"F:\World of PKZ 5.4.8\dep\g3dlite\include" /I"F:\World of PKZ 5.4.8\dep\recastnavigation\Recast" /I"F:\World of PKZ 5.4.8\dep\recastnavigation\Detour" /I"F:\World of PKZ 5.4.8\src\server\shared" /I"F:\World of PKZ 5.4.8\src\server\game\Conditions" /I"F:\World of PKZ 5.4.8\src\server\collision" /I"F:\World of PKZ 5.4.8\src\server\collision\Management" /I"F:\World of PKZ 5.4.8\src\server\collision\Maps" /I"F:\World of PKZ 5.4.8\src\server\collision\Models" /I"F:\World of PKZ 5.4.8\dep\libmpq\win" /nologo /W3 /WX- /O2 /Ob2 /D WIN32 /D _WINDOWS /D NDEBUG /D "_BUILD_DIRECTIVE=\"Release\"" /D _WIN64 /D _CRT_SECURE_CPP_OVERLOAD_STANDARD_NAMES /D _CRT_SECURE_NO_WARNINGS /D _CRT_NONSTDC_NO_WARNINGS /D SCRIPTS /D NO_CORE_FUNCS /D "CMAKE_INTDIR=\"Release\"" /D _MBCS /Gm- /EHsc /MD /GS /fp:precise /Zc:wchar_t /Zc:forScope /GR /Fo"MMAPS_GENERATOR.DIR\RELEASE\\" /Fd"MMAPS_GENERATOR.DIR\RELEASE\VC120.PDB" /Gd /TP /wd4996 /wd4355 /wd4244 /wd4985 /wd4267 /wd4619 /wd4512 /wd4996 /wd4355 /wd4244 /wd4985 /wd4267 /wd4619 /wd4512 /wd4996 /wd4355 /wd4244 /wd4985 /wd4267 /wd4619 /wd4512 /wd4996 /wd4355 /wd4244 /wd4985 /wd4267 /wd4619 /wd4512 /wd4996 /wd4355 /wd4244 /wd4985 /wd4267 /wd4619 /wd4512 /wd4996 /wd4355 /wd4244 /wd4985 /wd4267 /wd4619 /wd4512 /we4263 /we4264  /Zm500 -std=c++11  F:\WORLD OF PKZ 5.4.8\SRC\TOOLS\MMAPS_GENERATOR\VMAPEXTENSIONS.CPP
