^F:\WORLD OF PKZ 5.4.8\SRC\TOOLS\MMAPS_GENERATOR\INTERMEDIATEVALUES.CPP|F:\WORLD OF PKZ 5.4.8\SRC\TOOLS\MMAPS_GENERATOR\MAPBUILDER.CPP|F:\WORLD OF PKZ 5.4.8\SRC\TOOLS\MMAPS_GENERATOR\PATHGENERATOR.CPP|F:\WORLD OF PKZ 5.4.8\SRC\TOOLS\MMAPS_GENERATOR\TERRAINBUILDER.CPP|F:\WORLD OF PKZ 5.4.8\SRC\TOOLS\MMAPS_GENERATOR\VMAPEXTENSIONS.CPP
F:\WORLD OF PKZ 5.4.8\BUILD\SRC\TOOLS\MMAPS_GENERATOR\MMAPS_GENERATOR.DIR\RELEASE\VMAPEXTENSIONS.OBJ
F:\WORLD OF PKZ 5.4.8\BUILD\SRC\TOOLS\MMAPS_GENERATOR\MMAPS_GENERATOR.DIR\RELEASE\MAPBUILDER.OBJ
F:\WORLD OF PKZ 5.4.8\BUILD\SRC\TOOLS\MMAPS_GENERATOR\MMAPS_GENERATOR.DIR\RELEASE\TERRAINBUILDER.OBJ
F:\WORLD OF PKZ 5.4.8\BUILD\SRC\TOOLS\MMAPS_GENERATOR\MMAPS_GENERATOR.DIR\RELEASE\PATHGENERATOR.OBJ
F:\WORLD OF PKZ 5.4.8\BUILD\SRC\TOOLS\MMAPS_GENERATOR\MMAPS_GENERATOR.DIR\RELEASE\INTERMEDIATEVALUES.OBJ
